{
    factoryWarranty: "2年12个月",
    carAssessorName: "{{string|10}}",
    colorName: "白色",
    carId: "23e18af3968d46339662dbdd17d86548",
    mileage: "{{num}}.00",
    newPrice: "{{num|1-99}}.57",
    status: "ok",
    internetPrice: "{{num|1-99}}.00",
    carPic: "files/default/cc0b9a52dfac55099ae55c6906b138dc",
    qrCode: "https://mp.weixin.qq.com/cgi-bin/showqrcode?ticket=gQFg8DoAAAAAAAAAASxodHRwOi8vd2VpeGluLnFxLmNvbS9xL0lFeFJoMDdsU1kwd2VHaUVqbUN4AAIEFLM_VgMEAAAAAA==",
    userDefinedNumber: "MH2004",
    isInsuranceExpired: "无",
    engineVolumeName: "0.0L",
    purchaseTax: "20128",
    emissionStandardName: "国四",
    shopName: "杭州旗舰店",
    newPriceIncludeTax: "25.57",
    carName: "安凯客车2014款  宝斯通  3.0T VIP版安凯客车20安凯客车安",
    salePrice: "12.00",
    logo: "20160616/jpg/dc6160de5157ee694e03328f2bbf1bf3.jpg",
    reportId: '94r982eAaIaXacG',
    tagList: [
        {
            type: "fbsz",
            value: "防抱死制动系统"
        },
        {
            type: "aqql",
            value: "安全气囊"
        },
        {
            type: "brakeAssist",
            value: "刹车辅助系统"
        },
        {
            type: "stabilityControl",
            value: "车身稳定控制系统"
        },
        {
            type: "backMirrorElectricAdjustment",
            value: "后视镜电动调节"
        },
        {
            type: "ddxt",
            value: "导航"
        },
        {
            type: "dvdd",
            value: "CD／DVD"
        },
        {
            type: "zdhw",
            value: "空调"
        },
        {
            type: "centralDoorLock",
            value: "中控锁"
        },
        {
            type: "remoteKey",
            value: "遥控钥匙"
        },
        {
            type: "yjqd",
            value: "一键启动"
        },
        {
            type: "qhdd",
            value: "电动车窗"
        },
        {
            type: "backRada",
            value: "倒车雷达"
        },
        {
            type: "dcyx",
            value: "倒车影像"
        },
        {
            type: "spareWheel",
            value: "备用轮胎"
        },
        {
            type: "dsxh",
            value: "定速巡航"
        },
        {
            type: "qjtc",
            value: "天窗"
        },
        {
            type: "leatherSeat",
            value: "真皮座椅"
        },
        {
            type: "ddtj",
            value: "前座椅电动调节"
        }
    ],
    firstLicensePlateDate: {{date|0-10}},
    insuranceExpiresDate: 1464710400000,
    commercialInsuranceExpiresDate: 1464710400000,
    sparePrice: "13.57",
    summary: "哇哈哈哈哈，，这个是一个测试哇哈哈哈哈，，这个是一个测试哇哈哈哈哈，，这个是一个测试哇哈哈哈哈，，这个是一个测试哇哈哈哈哈，，这个是一个测试哇哈哈哈哈，，这个是一个测试哇哈哈哈哈，，这个是一个测试哇哈哇哈哈哈哈，，这个是一个测试哇哈哈哈哈，，这个是一个测试哇哈哈哈哈，，这个是一个测试哇哈哈哈哈，，这个是一个测试哇哈哈哈哈，，这个是一个测试哇哈哈哈哈，，这个是一个测试哇哈哈哈哈，，这个是一个测试哇哈",
}